{
  "project_info": {
    "project_number": "677361944646",
    "firebase_url": "https://agendadb-65c11.firebaseio.com",
    "project_id": "agendadb-65c11",
    "storage_bucket": "agendadb-65c11.appspot.com"
  },
  "client": [
    {
      "client_info": {
        "mobilesdk_app_id": "1:677361944646:android:25942a672d5fabdf7ae247",
        "android_client_info": {
          "package_name": "com.example.agendafirebase"
        }
      },
      "oauth_client": [
        {
          "client_id": "677361944646-mmqvu1sg92h4771iob0qtsqe75o8psq8.apps.googleusercontent.com",
          "client_type": 1,
          "android_info": {
            "package_name": "com.example.agendafirebase",
            "certificate_hash": "04cbb0ebd7dd2c20e03b2eed2aebed5aa4c922d6"
          }
        },
        {
          "client_id": "677361944646-ck1puc4d49pidh2i6ecpfogrj9v935bm.apps.googleusercontent.com",
          "client_type": 3
        }
      ],
      "api_key": [
        {
          "current_key": "AIzaSyB43PN4EcQcGo_2hJbzDAHKcaD_yc30kS4"
        }
      ],
      "services": {
        "appinvite_service": {
          "other_platform_oauth_client": [
            {
              "client_id": "677361944646-ck1puc4d49pidh2i6ecpfogrj9v935bm.apps.googleusercontent.com",
              "client_type": 3
            }
          ]
        }
      }
    }
  ],
  "configuration_version": "1"
}